…
Observe que não utilizamos head para imprimir as primeiras linhas. Essa é uma característica de tibbles: o output contém uma fração do banco, a informação sobre número de linhas e colunas, e os tipos de cada variável abaixo dos nomes das colunas. "delim" é o argumento que entra no lugar de "sep" ao utilizarmos as funções do readr.
```
# A tibble: 50 × 5
      uf codmunic                      munic        nis valor
   <chr>    <int>                      <chr>      <int> <int>
1     PI     1115                 LUZILANDIA 2147483647   167
2     RS     8953                    VACARIA 2147483647   124
3     SP     7145                   SOROCABA 2147483647   248
4     RN     1927               SERRA DO MEL 2147483647   202
5     MA      899 SANTA QUITERIA DO MARANHAO 2147483647   178
6     PE     2635       CARNAUBEIRA DA PENHA 2147483647   256
7     MA      849             PACO DO LUMIAR 2147483647   131
8     RN     1741                    MACAIBA 2147483647   242
9     PE     2457    JABOATAO DOS GUARARAPES 2147483647   163
10    ES     5663                   LINHARES 2147483647   163
# ... with 40 more rows
```
…
